  dw 1305,1305,1304,1304,1304,1304,1304,1303
  dw 1303,1303,1302,1302,1301,1300,1300,1299
  dw 1298,1297,1297,1296,1295,1294,1293,1292
  dw 1291,1290,1288,1287,1286,1284,1283,1282
  dw 1280,1279,1277,1275,1274,1272,1270,1269
  dw 1267,1265,1263,1261,1259,1257,1255,1253
  dw 1251,1248,1246,1244,1241,1239,1237,1234
  dw 1232,1229,1227,1224,1221,1219,1216,1213
  dw 1210,1207,1205,1202,1199,1196,1193,1190
  dw 1186,1183,1180,1177,1174,1170,1167,1164
  dw 1160,1157,1153,1150,1146,1143,1139,1136
  dw 1132,1128,1125,1121,1117,1113,1109,1106
  dw 1102,1098,1094,1090,1086,1082,1078,1074
  dw 1070,1066,1061,1057,1053,1049,1045,1040
  dw 1036,1032,1027,1023,1019,1014,1010,1005
  dw 1001, 997, 992, 988, 983, 978, 974, 969
  dw  965, 960, 955, 951, 946, 941, 937, 932
  dw  927, 923, 918, 913, 908, 904, 899, 894
  dw  889, 884, 880, 875, 870, 865, 860, 855
  dw  851, 846, 841, 836, 831, 826, 821, 816
  dw  811, 806, 802, 797, 792, 787, 782, 777
  dw  772, 767, 762, 757, 752, 747, 742, 737
  dw  732, 728, 723, 718, 713, 708, 703, 698
  dw  693, 688, 683, 678, 674, 669, 664, 659
  dw  654, 649, 644, 640, 635, 630, 625, 620
  dw  615, 611, 606, 601, 596, 592, 587, 582
  dw  577, 573, 568, 563, 559, 554, 550, 545
  dw  540, 536, 531, 527, 522, 517, 513, 508
  dw  504, 499, 495, 491, 486, 482, 477, 473
  dw  469, 464, 460, 456, 451, 447, 443, 439
  dw  434, 430, 426, 422, 418, 414, 410, 405
  dw  401, 397, 393, 389, 385, 381, 378, 374
  dw  370, 366, 362, 358, 354, 351, 347, 343
  dw  339, 336, 332, 328, 325, 321, 318, 314
  dw  311, 307, 304, 300, 297, 293, 290, 286
  dw  283, 280, 276, 273, 270, 267, 263, 260
  dw  257, 254, 251, 248, 245, 242, 239, 236
  dw  233, 230, 227, 224, 221, 218, 215, 212
  dw  210, 207, 204, 201, 199, 196, 193, 191
  dw  188, 186, 183, 180, 178, 175, 173, 171
  dw  168, 166, 163, 161, 159, 156, 154, 152
  dw  150, 147, 145, 143, 141, 139, 137, 134
  dw  132, 130, 128, 126, 124, 122, 120, 118
  dw  117, 115, 113, 111, 109, 107, 106, 104
  dw  102, 100,  99,  97,  95,  94,  92,  90
  dw   89,  87,  86,  84,  83,  81,  80,  78
  dw   77,  76,  74,  73,  71,  70,  69,  67
  dw   66,  65,  64,  62,  61,  60,  59,  58
  dw   56,  55,  54,  53,  52,  51,  50,  49
  dw   48,  47,  46,  45,  44,  43,  42,  41
  dw   40,  39,  38,  37,  36,  36,  35,  34
  dw   33,  32,  32,  31,  30,  29,  29,  28
  dw   27,  27,  26,  25,  24,  24,  23,  23
  dw   22,  21,  21,  20,  20,  19,  19,  18
  dw   17,  17,  16,  16,  15,  15,  15,  14
  dw   14,  13,  13,  12,  12,  11,  11,  11
  dw   10,  10,  10,   9,   9,   9,   8,   8
  dw    8,   7,   7,   7,   6,   6,   6,   6
  dw    5,   5,   5,   5,   4,   4,   4,   4
  dw    4,   3,   3,   3,   3,   3,   2,   2
  dw    2,   2,   2,   2,   2,   1,   1,   1
  dw    1,   1,   1,   1,   1,   1,   1,   1
  dw    0,   0,   0,   0,   0,   0,   0,   0
  dw    0,   0,   0,   0,   0,   0,   0,   0
